1=7abc235914ac11e713d569d5d8376f3dbd6c768a
2=b6cbddfaaffcc3375d7e90b9c512ba025587362d
3=9c179101b98eda3cd8e4b7158768d118853693a1
4=a0edef5d31e75c9aa92aabfe49c706dd32e9579b
5=057e5d3610103fed70b4fca391b76f06c4a400b2
6=c057e36969376933c8f80ce458e1f131ebd7706b
7=d34ec112d281fcc34ee68a3667730a4ea11bc42c
8=c1eb6bfa28887e772c8a5659b1defa064255713a
9=afbe7d06eaa2ec654a9079bc1fdbefd16d6428c8
10=95ab73b2e9d2f6966c4e989a4b86ffa28380d866
11=aea3e78ed26df2738e75a670e38241393f34705d
12=042c5f981a7b2c65a50e1fbe92f0d5387d272541
13=a6323b1c89b8d1fc376eea05a73850e87b025f97
14=c46e480a9503b6488c966503d5f7afde75e80600